{
"metabolites":[
{
"id":"ALA",
"name":"ALA",
"compartment":"ext",
"charge":0
},
{
"id":"ARG",
"name":"ARG",
"compartment":"ext",
"charge":0
},
{
"id":"ASP",
"name":"ASP",
"compartment":"ext",
"charge":0
},
{
"id":"Biomass",
"name":"Biomass",
"compartment":"ext",
"charge":0
},
{
"id":"CO2",
"name":"CO2",
"compartment":"ext",
"charge":0
},
{
"id":"CYS",
"name":"CYS",
"compartment":"ext",
"charge":0
},
{
"id":"CoAc",
"name":"CoAc",
"compartment":"ext",
"charge":0
},
{
"id":"CoAm",
"name":"CoAm",
"compartment":"ext",
"charge":0
},
{
"id":"Collagen",
"name":"Collagen",
"compartment":"ext",
"charge":0
},
{
"id":"FOR",
"name":"FOR",
"compartment":"ext",
"charge":0
},
{
"id":"GLN",
"name":"GLN",
"compartment":"ext",
"charge":0
},
{
"id":"GLUC",
"name":"GLUC",
"compartment":"ext",
"charge":0
},
{
"id":"GLUT",
"name":"GLUT",
"compartment":"ext",
"charge":0
},
{
"id":"GLY",
"name":"GLY",
"compartment":"ext",
"charge":0
},
{
"id":"H2O",
"name":"H2O",
"compartment":"ext",
"charge":0
},
{
"id":"HCO3",
"name":"HCO3",
"compartment":"ext",
"charge":0
},
{
"id":"HIS",
"name":"HIS",
"compartment":"ext",
"charge":0
},
{
"id":"LAC",
"name":"LAC",
"compartment":"ext",
"charge":0
},
{
"id":"MET",
"name":"MET",
"compartment":"ext",
"charge":0
},
{
"id":"NADHc",
"name":"NADHc",
"compartment":"ext",
"charge":0
},
{
"id":"NADPHc",
"name":"NADPHc",
"compartment":"ext",
"charge":0
},
{
"id":"NADPc",
"name":"NADPc",
"compartment":"ext",
"charge":0
},
{
"id":"NADc",
"name":"NADc",
"compartment":"ext",
"charge":0
},
{
"id":"NH3_out",
"name":"NH3_out",
"compartment":"ext",
"charge":0
},
{
"id":"NO",
"name":"NO",
"compartment":"ext",
"charge":0
},
{
"id":"O2",
"name":"O2",
"compartment":"ext",
"charge":0
},
{
"id":"PMFm",
"name":"PMFm",
"compartment":"ext",
"charge":0
},
{
"id":"PRO",
"name":"PRO",
"compartment":"ext",
"charge":0
},
{
"id":"PYR",
"name":"PYR",
"compartment":"ext",
"charge":0
},
{
"id":"Palmitate",
"name":"Palmitate",
"compartment":"ext",
"charge":0
},
{
"id":"Pi",
"name":"Pi",
"compartment":"ext",
"charge":0
},
{
"id":"SER",
"name":"SER",
"compartment":"ext",
"charge":0
},
{
"id":"Stroma",
"name":"Stroma",
"compartment":"ext",
"charge":0
},
{
"id":"TIV",
"name":"TIV",
"compartment":"ext",
"charge":0
},
{
"id":"XTP",
"name":"XTP",
"compartment":"ext",
"charge":0
},
{
"id":"YFLKW",
"name":"YFLKW",
"compartment":"ext",
"charge":0
},
{
"id":"3PG",
"name":"3PG",
"compartment":"int",
"charge":0
},
{
"id":"ACETm",
"name":"ACETm",
"compartment":"int",
"charge":0
},
{
"id":"ACoAc",
"name":"ACoAc",
"compartment":"int",
"charge":0
},
{
"id":"ACoAm",
"name":"ACoAm",
"compartment":"int",
"charge":0
},
{
"id":"ADPc",
"name":"ADPc",
"compartment":"int",
"charge":0
},
{
"id":"ADPm",
"name":"ADPm",
"compartment":"int",
"charge":0
},
{
"id":"AKGc",
"name":"AKGc",
"compartment":"int",
"charge":0
},
{
"id":"AKGm",
"name":"AKGm",
"compartment":"int",
"charge":0
},
{
"id":"ALAc",
"name":"ALAc",
"compartment":"int",
"charge":0
},
{
"id":"ARGc",
"name":"ARGc",
"compartment":"int",
"charge":0
},
{
"id":"ASNc",
"name":"ASNc",
"compartment":"int",
"charge":0
},
{
"id":"ASPc",
"name":"ASPc",
"compartment":"int",
"charge":0
},
{
"id":"ASPm",
"name":"ASPm",
"compartment":"int",
"charge":0
},
{
"id":"ATPc",
"name":"ATPc",
"compartment":"int",
"charge":0
},
{
"id":"ATPm",
"name":"ATPm",
"compartment":"int",
"charge":0
},
{
"id":"CBrick",
"name":"CBrick",
"compartment":"int",
"charge":0
},
{
"id":"CITRc",
"name":"CITRc",
"compartment":"int",
"charge":0
},
{
"id":"CITRm",
"name":"CITRm",
"compartment":"int",
"charge":0
},
{
"id":"CITc",
"name":"CITc",
"compartment":"int",
"charge":0
},
{
"id":"CITm",
"name":"CITm",
"compartment":"int",
"charge":0
},
{
"id":"CYSc",
"name":"CYSc",
"compartment":"int",
"charge":0
},
{
"id":"DPH",
"name":"DPH",
"compartment":"int",
"charge":0
},
{
"id":"DPSI",
"name":"DPSI",
"compartment":"int",
"charge":0
},
{
"id":"FMETm",
"name":"FMETm",
"compartment":"int",
"charge":0
},
{
"id":"FORc",
"name":"FORc",
"compartment":"int",
"charge":0
},
{
"id":"FORm",
"name":"FORm",
"compartment":"int",
"charge":0
},
{
"id":"FTHFc",
"name":"FTHFc",
"compartment":"int",
"charge":0
},
{
"id":"FTHFm",
"name":"FTHFm",
"compartment":"int",
"charge":0
},
{
"id":"G3P",
"name":"G3P",
"compartment":"int",
"charge":0
},
{
"id":"G6P",
"name":"G6P",
"compartment":"int",
"charge":0
},
{
"id":"GFactor",
"name":"GFactor",
"compartment":"int",
"charge":0
},
{
"id":"GLNc",
"name":"GLNc",
"compartment":"int",
"charge":0
},
{
"id":"GLNm",
"name":"GLNm",
"compartment":"int",
"charge":0
},
{
"id":"GLUCc",
"name":"GLUCc",
"compartment":"int",
"charge":0
},
{
"id":"GLUTc",
"name":"GLUTc",
"compartment":"int",
"charge":0
},
{
"id":"GLUTm",
"name":"GLUTm",
"compartment":"int",
"charge":0
},
{
"id":"GLYc",
"name":"GLYc",
"compartment":"int",
"charge":0
},
{
"id":"GLYm",
"name":"GLYm",
"compartment":"int",
"charge":0
},
{
"id":"GSHc",
"name":"GSHc",
"compartment":"int",
"charge":0
},
{
"id":"HISc",
"name":"HISc",
"compartment":"int",
"charge":0
},
{
"id":"HPROc",
"name":"HPROc",
"compartment":"int",
"charge":0
},
{
"id":"IL1B",
"name":"IL1B",
"compartment":"int",
"charge":0
},
{
"id":"Inflam",
"name":"Inflam",
"compartment":"int",
"charge":0
},
{
"id":"LACc",
"name":"LACc",
"compartment":"int",
"charge":0
},
{
"id":"MALc",
"name":"MALc",
"compartment":"int",
"charge":0
},
{
"id":"MALm",
"name":"MALm",
"compartment":"int",
"charge":0
},
{
"id":"METc",
"name":"METc",
"compartment":"int",
"charge":0
},
{
"id":"METm",
"name":"METm",
"compartment":"int",
"charge":0
},
{
"id":"MTHFc",
"name":"MTHFc",
"compartment":"int",
"charge":0
},
{
"id":"MTHFm",
"name":"MTHFm",
"compartment":"int",
"charge":0
},
{
"id":"NADHm",
"name":"NADHm",
"compartment":"int",
"charge":0
},
{
"id":"NADPHm",
"name":"NADPHm",
"compartment":"int",
"charge":0
},
{
"id":"NADPm",
"name":"NADPm",
"compartment":"int",
"charge":0
},
{
"id":"NADm",
"name":"NADm",
"compartment":"int",
"charge":0
},
{
"id":"NH3",
"name":"NH3",
"compartment":"int",
"charge":0
},
{
"id":"OAAc",
"name":"OAAc",
"compartment":"int",
"charge":0
},
{
"id":"OAAm",
"name":"OAAm",
"compartment":"int",
"charge":0
},
{
"id":"ORNm",
"name":"ORNm",
"compartment":"int",
"charge":0
},
{
"id":"PEPc",
"name":"PEPc",
"compartment":"int",
"charge":0
},
{
"id":"PEPm",
"name":"PEPm",
"compartment":"int",
"charge":0
},
{
"id":"PROc",
"name":"PROc",
"compartment":"int",
"charge":0
},
{
"id":"PYRc",
"name":"PYRc",
"compartment":"int",
"charge":0
},
{
"id":"PYRm",
"name":"PYRm",
"compartment":"int",
"charge":0
},
{
"id":"PalCoAc",
"name":"PalCoAc",
"compartment":"int",
"charge":0
},
{
"id":"PalCoAm",
"name":"PalCoAm",
"compartment":"int",
"charge":0
},
{
"id":"Palmitate_c",
"name":"Palmitate_c",
"compartment":"int",
"charge":0
},
{
"id":"Pic",
"name":"Pic",
"compartment":"int",
"charge":0
},
{
"id":"Pim",
"name":"Pim",
"compartment":"int",
"charge":0
},
{
"id":"Q",
"name":"Q",
"compartment":"int",
"charge":0
},
{
"id":"QH2",
"name":"QH2",
"compartment":"int",
"charge":0
},
{
"id":"R5P",
"name":"R5P",
"compartment":"int",
"charge":0
},
{
"id":"SERc",
"name":"SERc",
"compartment":"int",
"charge":0
},
{
"id":"SERm",
"name":"SERm",
"compartment":"int",
"charge":0
},
{
"id":"SUCCc",
"name":"SUCCc",
"compartment":"int",
"charge":0
},
{
"id":"SUCCm",
"name":"SUCCm",
"compartment":"int",
"charge":0
},
{
"id":"THFc",
"name":"THFc",
"compartment":"int",
"charge":0
},
{
"id":"THFm",
"name":"THFm",
"compartment":"int",
"charge":0
},
{
"id":"TIVc",
"name":"TIVc",
"compartment":"int",
"charge":0
},
{
"id":"TNFA",
"name":"TNFA",
"compartment":"int",
"charge":0
},
{
"id":"VEGFA",
"name":"VEGFA",
"compartment":"int",
"charge":0
},
{
"id":"XTPc",
"name":"XTPc",
"compartment":"int",
"charge":0
},
{
"id":"XYAAc",
"name":"XYAAc",
"compartment":"int",
"charge":0
},
{
"id":"YFLKWc",
"name":"YFLKWc",
"compartment":"int",
"charge":0
}
],
"reactions":[
{
"id":"EX_ALA",
"name":"EX_ALA",
"metabolites":{
"ALA":-1
},
"lower_bound":-1000.0,
"upper_bound":1000.0,
"gene_reaction_rule":"",
"annotation":{
"sbo":"SBO:0000627"
}
},
{
"id":"EX_ARG",
"name":"EX_ARG",
"metabolites":{
"ARG":-1
},
"lower_bound":-1000.0,
"upper_bound":1000.0,
"gene_reaction_rule":"",
"annotation":{
"sbo":"SBO:0000627"
}
},
{
"id":"EX_ASP",
"name":"EX_ASP",
"metabolites":{
"ASP":-1
},
"lower_bound":-1000.0,
"upper_bound":1000.0,
"gene_reaction_rule":"",
"annotation":{
"sbo":"SBO:0000627"
}
},
{
"id":"EX_Biomass",
"name":"EX_Biomass",
"metabolites":{
"Biomass":-1
},
"lower_bound":-1000.0,
"upper_bound":1000.0,
"gene_reaction_rule":"",
"annotation":{
"sbo":"SBO:0000627"
}
},
{
"id":"EX_CO2",
"name":"EX_CO2",
"metabolites":{
"CO2":-1
},
"lower_bound":-1000.0,
"upper_bound":1000.0,
"gene_reaction_rule":"",
"annotation":{
"sbo":"SBO:0000627"
}
},
{
"id":"EX_CYS",
"name":"EX_CYS",
"metabolites":{
"CYS":-1
},
"lower_bound":-1000.0,
"upper_bound":1000.0,
"gene_reaction_rule":"",
"annotation":{
"sbo":"SBO:0000627"
}
},
{
"id":"EX_CoAc",
"name":"EX_CoAc",
"metabolites":{
"CoAc":-1
},
"lower_bound":-1000.0,
"upper_bound":1000.0,
"gene_reaction_rule":"",
"annotation":{
"sbo":"SBO:0000627"
}
},
{
"id":"EX_CoAm",
"name":"EX_CoAm",
"metabolites":{
"CoAm":-1
},
"lower_bound":-1000.0,
"upper_bound":1000.0,
"gene_reaction_rule":"",
"annotation":{
"sbo":"SBO:0000627"
}
},
{
"id":"EX_Collagen",
"name":"EX_Collagen",
"metabolites":{
"Collagen":-1
},
"lower_bound":-1000.0,
"upper_bound":1000.0,
"gene_reaction_rule":"",
"annotation":{
"sbo":"SBO:0000627"
}
},
{
"id":"EX_FOR",
"name":"EX_FOR",
"metabolites":{
"FOR":-1
},
"lower_bound":-1000.0,
"upper_bound":1000.0,
"gene_reaction_rule":"",
"annotation":{
"sbo":"SBO:0000627"
}
},
{
"id":"EX_GLN",
"name":"EX_GLN",
"metabolites":{
"GLN":-1
},
"lower_bound":-1000.0,
"upper_bound":1000.0,
"gene_reaction_rule":"",
"annotation":{
"sbo":"SBO:0000627"
}
},
{
"id":"EX_GLUC",
"name":"EX_GLUC",
"metabolites":{
"GLUC":-1
},
"lower_bound":-1000.0,
"upper_bound":1000.0,
"gene_reaction_rule":"",
"annotation":{
"sbo":"SBO:0000627"
}
},
{
"id":"EX_GLUT",
"name":"EX_GLUT",
"metabolites":{
"GLUT":-1
},
"lower_bound":-1000.0,
"upper_bound":1000.0,
"gene_reaction_rule":"",
"annotation":{
"sbo":"SBO:0000627"
}
},
{
"id":"EX_GLY",
"name":"EX_GLY",
"metabolites":{
"GLY":-1
},
"lower_bound":-1000.0,
"upper_bound":1000.0,
"gene_reaction_rule":"",
"annotation":{
"sbo":"SBO:0000627"
}
},
{
"id":"EX_H2O",
"name":"EX_H2O",
"metabolites":{
"H2O":-1
},
"lower_bound":-1000.0,
"upper_bound":1000.0,
"gene_reaction_rule":"",
"annotation":{
"sbo":"SBO:0000627"
}
},
{
"id":"EX_HCO3",
"name":"EX_HCO3",
"metabolites":{
"HCO3":-1
},
"lower_bound":-1000.0,
"upper_bound":1000.0,
"gene_reaction_rule":"",
"annotation":{
"sbo":"SBO:0000627"
}
},
{
"id":"EX_HIS",
"name":"EX_HIS",
"metabolites":{
"HIS":-1
},
"lower_bound":-1000.0,
"upper_bound":1000.0,
"gene_reaction_rule":"",
"annotation":{
"sbo":"SBO:0000627"
}
},
{
"id":"EX_LAC",
"name":"EX_LAC",
"metabolites":{
"LAC":-1
},
"lower_bound":-1000.0,
"upper_bound":1000.0,
"gene_reaction_rule":"",
"annotation":{
"sbo":"SBO:0000627"
}
},
{
"id":"EX_MET",
"name":"EX_MET",
"metabolites":{
"MET":-1
},
"lower_bound":-1000.0,
"upper_bound":1000.0,
"gene_reaction_rule":"",
"annotation":{
"sbo":"SBO:0000627"
}
},
{
"id":"EX_NADHc",
"name":"EX_NADHc",
"metabolites":{
"NADHc":-1
},
"lower_bound":-1000.0,
"upper_bound":1000.0,
"gene_reaction_rule":"",
"annotation":{
"sbo":"SBO:0000627"
}
},
{
"id":"EX_NADPHc",
"name":"EX_NADPHc",
"metabolites":{
"NADPHc":-1
},
"lower_bound":-1000.0,
"upper_bound":1000.0,
"gene_reaction_rule":"",
"annotation":{
"sbo":"SBO:0000627"
}
},
{
"id":"EX_NADPc",
"name":"EX_NADPc",
"metabolites":{
"NADPc":-1
},
"lower_bound":-1000.0,
"upper_bound":1000.0,
"gene_reaction_rule":"",
"annotation":{
"sbo":"SBO:0000627"
}
},
{
"id":"EX_NADc",
"name":"EX_NADc",
"metabolites":{
"NADc":-1
},
"lower_bound":-1000.0,
"upper_bound":1000.0,
"gene_reaction_rule":"",
"annotation":{
"sbo":"SBO:0000627"
}
},
{
"id":"EX_NH3_out",
"name":"EX_NH3_out",
"metabolites":{
"NH3_out":-1
},
"lower_bound":-1000.0,
"upper_bound":1000.0,
"gene_reaction_rule":"",
"annotation":{
"sbo":"SBO:0000627"
}
},
{
"id":"EX_NO",
"name":"EX_NO",
"metabolites":{
"NO":-1
},
"lower_bound":-1000.0,
"upper_bound":1000.0,
"gene_reaction_rule":"",
"annotation":{
"sbo":"SBO:0000627"
}
},
{
"id":"EX_O2",
"name":"EX_O2",
"metabolites":{
"O2":-1
},
"lower_bound":-1000.0,
"upper_bound":1000.0,
"gene_reaction_rule":"",
"annotation":{
"sbo":"SBO:0000627"
}
},
{
"id":"EX_PMFm",
"name":"EX_PMFm",
"metabolites":{
"PMFm":-1
},
"lower_bound":-1000.0,
"upper_bound":1000.0,
"gene_reaction_rule":"",
"annotation":{
"sbo":"SBO:0000627"
}
},
{
"id":"EX_PRO",
"name":"EX_PRO",
"metabolites":{
"PRO":-1
},
"lower_bound":-1000.0,
"upper_bound":1000.0,
"gene_reaction_rule":"",
"annotation":{
"sbo":"SBO:0000627"
}
},
{
"id":"EX_PYR",
"name":"EX_PYR",
"metabolites":{
"PYR":-1
},
"lower_bound":-1000.0,
"upper_bound":1000.0,
"gene_reaction_rule":"",
"annotation":{
"sbo":"SBO:0000627"
}
},
{
"id":"EX_Palmitate",
"name":"EX_Palmitate",
"metabolites":{
"Palmitate":-1
},
"lower_bound":-1000.0,
"upper_bound":1000.0,
"gene_reaction_rule":"",
"annotation":{
"sbo":"SBO:0000627"
}
},
{
"id":"EX_Pi",
"name":"EX_Pi",
"metabolites":{
"Pi":-1
},
"lower_bound":-1000.0,
"upper_bound":1000.0,
"gene_reaction_rule":"",
"annotation":{
"sbo":"SBO:0000627"
}
},
{
"id":"EX_SER",
"name":"EX_SER",
"metabolites":{
"SER":-1
},
"lower_bound":-1000.0,
"upper_bound":1000.0,
"gene_reaction_rule":"",
"annotation":{
"sbo":"SBO:0000627"
}
},
{
"id":"EX_Stroma",
"name":"EX_Stroma",
"metabolites":{
"Stroma":-1
},
"lower_bound":-1000.0,
"upper_bound":1000.0,
"gene_reaction_rule":"",
"annotation":{
"sbo":"SBO:0000627"
}
},
{
"id":"EX_TIV",
"name":"EX_TIV",
"metabolites":{
"TIV":-1
},
"lower_bound":-1000.0,
"upper_bound":1000.0,
"gene_reaction_rule":"",
"annotation":{
"sbo":"SBO:0000627"
}
},
{
"id":"EX_XTP",
"name":"EX_XTP",
"metabolites":{
"XTP":-1
},
"lower_bound":-1000.0,
"upper_bound":1000.0,
"gene_reaction_rule":"",
"annotation":{
"sbo":"SBO:0000627"
}
},
{
"id":"EX_YFLKW",
"name":"EX_YFLKW",
"metabolites":{
"YFLKW":-1
},
"lower_bound":-1000.0,
"upper_bound":1000.0,
"gene_reaction_rule":"",
"annotation":{
"sbo":"SBO:0000627"
}
},
{
"id":"ACS",
"name":"ACS",
"metabolites":{
"ACETm":-1.0,
"ACoAm":1.0,
"ADPm":2.0,
"ATPm":-2.0,
"CoAm":-1.0,
"Pim":2.0
},
"lower_bound":0.0,
"upper_bound":1000.0,
"gene_reaction_rule":"",
"objective_coefficient":1.0
},
{
"id":"ALP1",
"name":"ALP1",
"metabolites":{
"ASNc":-1.0,
"ASPc":1.0,
"H2O":-1.0,
"NH3":1.0
},
"lower_bound":-1000.0,
"upper_bound":1000.0,
"gene_reaction_rule":""
},
{
"id":"ALT1",
"name":"ALT1",
"metabolites":{
"AKGc":-1.0,
"ALAc":-1.0,
"GLUTc":1.0,
"PYRc":1.0
},
"lower_bound":-1000.0,
"upper_bound":1000.0,
"gene_reaction_rule":""
},
{
"id":"ANT",
"name":"ANT",
"metabolites":{
"ADPc":-1.0,
"ADPm":1.0,
"ATPc":1.0,
"ATPm":-1.0,
"DPSI":-1.0
},
"lower_bound":-1000.0,
"upper_bound":1000.0,
"gene_reaction_rule":""
},
{
"id":"ASS1_ASL_FH",
"name":"ASS1_ASL_FH",
"metabolites":{
"ADPc":2.0,
"ARGc":1.0,
"ASPc":-1.0,
"ATPc":-2.0,
"CITRc":-1.0,
"MALc":1.0,
"Pic":2.0
},
"lower_bound":-1000.0,
"upper_bound":1000.0,
"gene_reaction_rule":""
},
{
"id":"ASYNT",
"name":"ASYNT",
"metabolites":{
"ADPm":-3.0,
"ATPm":3.0,
"DPH":-8.0,
"DPSI":-8.0,
"Pim":-3.0
},
"lower_bound":-1000.0,
"upper_bound":1000.0,
"gene_reaction_rule":""
},
{
"id":"ATPASE",
"name":"ATPASE",
"metabolites":{
"ADPc":1.0,
"ATPc":-1.0,
"Pic":1.0
},
"lower_bound":0.0,
"upper_bound":1000.0,
"gene_reaction_rule":""
},
{
"id":"BM",
"name":"BM",
"metabolites":{
"ADPc":4.0,
"ARGc":-0.05,
"ASPc":-0.7,
"ATPc":-4.0,
"Biomass":1.0,
"FMETm":-0.01,
"GLNc":-0.19,
"GLUTc":-0.17,
"GLYc":-0.14,
"GSHc":-0.02,
"METc":-0.01,
"PYRc":-0.12,
"Palmitate_c":-0.11,
"Pic":4.0,
"SERc":-0.04,
"XTPc":-0.04
},
"lower_bound":0.0,
"upper_bound":1000.0,
"gene_reaction_rule":""
},
{
"id":"CBS",
"name":"CBS",
"metabolites":{
"CBrick":1.0,
"GLYc":-0.33,
"HPROc":-0.085,
"PROc":-0.085,
"XYAAc":-0.5
},
"lower_bound":0.0,
"upper_bound":1000.0,
"gene_reaction_rule":""
},
{
"id":"CL",
"name":"CL",
"metabolites":{
"ACoAc":1.0,
"ADPc":1.0,
"ATPc":-1.0,
"CITc":-1.0,
"CoAc":-1.0,
"OAAc":1.0,
"Pic":1.0
},
"lower_bound":0.0,
"upper_bound":1000.0,
"gene_reaction_rule":""
},
{
"id":"COLLAG",
"name":"COLLAG",
"metabolites":{
"CBrick":-100.0,
"Collagen":1.0
},
"lower_bound":0.0,
"upper_bound":1000.0,
"gene_reaction_rule":""
},
{
"id":"CPS1_OTC",
"name":"CPS1_OTC",
"metabolites":{
"ADPm":2.0,
"ATPm":-2.0,
"CITRm":1.0,
"HCO3":-1.0,
"NH3":-1.0,
"ORNm":-1.0,
"Pim":2.0
},
"lower_bound":0.0,
"upper_bound":1000.0,
"gene_reaction_rule":""
},
{
"id":"CS",
"name":"CS",
"metabolites":{
"ACoAm":-1.0,
"CITm":1.0,
"OAAm":-1.0
},
"lower_bound":0.0,
"upper_bound":1000.0,
"gene_reaction_rule":""
},
{
"id":"ENOMUT",
"name":"ENOMUT",
"metabolites":{
"3PG":1.0,
"PEPc":-1.0
},
"lower_bound":-1000.0,
"upper_bound":1000.0,
"gene_reaction_rule":""
},
{
"id":"FACT",
"name":"FACT",
"metabolites":{
"GFactor":1.0,
"VEGFA":-1.0
},
"lower_bound":0.0,
"upper_bound":1000.0,
"gene_reaction_rule":""
},
{
"id":"G1",
"name":"G1",
"metabolites":{
"ADPc":1.0,
"ATPc":-1.0,
"G6P":1.0,
"GLUCc":-1.0
},
"lower_bound":0.0,
"upper_bound":1000.0,
"gene_reaction_rule":""
},
{
"id":"G2",
"name":"G2",
"metabolites":{
"ADPc":1.0,
"ATPc":-1.0,
"G3P":2.0,
"G6P":-1.0
},
"lower_bound":0.0,
"upper_bound":1000.0,
"gene_reaction_rule":""
},
{
"id":"G3",
"name":"G3",
"metabolites":{
"3PG":1.0,
"ADPc":-1.0,
"ATPc":1.0,
"G3P":-1.0,
"NADHc":1.0,
"NADc":-1.0,
"Pic":-1.0
},
"lower_bound":-1000.0,
"upper_bound":1000.0,
"gene_reaction_rule":""
},
{
"id":"GCS",
"name":"GCS",
"metabolites":{
"CO2":1.0,
"GLYm":-1.0,
"MTHFm":1.0,
"NADHm":1.0,
"NADm":-1.0,
"NH3":1.0,
"THFm":-1.0
},
"lower_bound":-1000.0,
"upper_bound":1000.0,
"gene_reaction_rule":""
},
{
"id":"GG3",
"name":"GG3",
"metabolites":{
"G3P":-2.0,
"G6P":1.0,
"Pic":1.0
},
"lower_bound":0.0,
"upper_bound":1000.0,
"gene_reaction_rule":""
},
{
"id":"GG4",
"name":"GG4",
"metabolites":{
"G6P":-1.0,
"GLUCc":1.0,
"Pic":1.0
},
"lower_bound":0.0,
"upper_bound":1000.0,
"gene_reaction_rule":""
},
{
"id":"GLNUP",
"name":"GLNUP",
"metabolites":{
"GLN":-1.0,
"GLNc":1.0
},
"lower_bound":0.0,
"upper_bound":1000.0,
"gene_reaction_rule":""
},
{
"id":"GLS1",
"name":"GLS1",
"metabolites":{
"GLNm":-1.0,
"GLUTm":1.0,
"NH3":1.0
},
"lower_bound":0.0,
"upper_bound":1000.0,
"gene_reaction_rule":""
},
{
"id":"GLUCUP",
"name":"GLUCUP",
"metabolites":{
"GLUC":-1.0,
"GLUCc":1.0
},
"lower_bound":0.0,
"upper_bound":1000.0,
"gene_reaction_rule":""
},
{
"id":"GLUD1",
"name":"GLUD1",
"metabolites":{
"AKGm":1.0,
"GLUTm":-1.0,
"NADHm":1.0,
"NADm":-1.0,
"NH3":1.0
},
"lower_bound":-1000.0,
"upper_bound":1000.0,
"gene_reaction_rule":""
},
{
"id":"GOT1",
"name":"GOT1",
"metabolites":{
"AKGc":1.0,
"ASPc":1.0,
"GLUTc":-1.0,
"OAAc":-1.0
},
"lower_bound":-1000.0,
"upper_bound":1000.0,
"gene_reaction_rule":""
},
{
"id":"GOT2",
"name":"GOT2",
"metabolites":{
"AKGm":1.0,
"ASPm":1.0,
"GLUTm":-1.0,
"OAAm":-1.0
},
"lower_bound":-1000.0,
"upper_bound":1000.0,
"gene_reaction_rule":""
},
{
"id":"GS1",
"name":"GS1",
"metabolites":{
"ADPc":1.0,
"ATPc":-1.0,
"GLNc":1.0,
"GLUTc":-1.0,
"NH3":-1.0,
"Pic":1.0
},
"lower_bound":0.0,
"upper_bound":1000.0,
"gene_reaction_rule":""
},
{
"id":"GTSH",
"name":"GTSH",
"metabolites":{
"ADPc":2.0,
"ATPc":-2.0,
"CYSc":-1.0,
"GLUTc":-1.0,
"GLYc":-1.0,
"GSHc":1.0,
"Pic":2.0
},
"lower_bound":0.0,
"upper_bound":1000.0,
"gene_reaction_rule":""
},
{
"id":"HISDG",
"name":"HISDG",
"metabolites":{
"FTHFc":1.0,
"GLUTc":1.0,
"H2O":-3.0,
"HISc":-1.0,
"NH3":1.0,
"THFc":-1.0
},
"lower_bound":0.0,
"upper_bound":1000.0,
"gene_reaction_rule":""
},
{
"id":"HPRO",
"name":"HPRO",
"metabolites":{
"AKGc":-1.0,
"HPROc":1.0,
"PROc":-1.0,
"SUCCc":1.0
},
"lower_bound":0.0,
"upper_bound":1000.0,
"gene_reaction_rule":""
},
{
"id":"IDH1",
"name":"IDH1",
"metabolites":{
"AKGc":1.0,
"CITc":-1.0,
"CO2":1.0,
"NADPHc":1.0,
"NADPc":-1.0
},
"lower_bound":-1000.0,
"upper_bound":1000.0,
"gene_reaction_rule":""
},
{
"id":"IDH2_NNT",
"name":"IDH2_NNT",
"metabolites":{
"AKGm":-1.0,
"CITm":1.0,
"CO2":-1.0,
"DPH":-1.0,
"DPSI":-1.0,
"NADHm":-1.0,
"NADm":1.0
},
"lower_bound":0.0,
"upper_bound":1000.0,
"gene_reaction_rule":""
},
{
"id":"IDH3",
"name":"IDH3",
"metabolites":{
"AKGm":1.0,
"CITm":-1.0,
"CO2":1.0,
"NADHm":1.0,
"NADm":-1.0
},
"lower_bound":-1000.0,
"upper_bound":1000.0,
"gene_reaction_rule":""
},
{
"id":"IL1B",
"name":"IL1B",
"metabolites":{
"ALAc":-0.048,
"ARGc":-0.022,
"ASNc":-0.045,
"ASPc":-0.074,
"CYSc":-0.019,
"GLNc":-0.067,
"GLUTc":-0.078,
"GLYc":-0.048,
"HISc":-0.015,
"IL1B":0.00371,
"METc":-0.045,
"PROc":-0.056,
"SERc":-0.078,
"TIVc":-0.13,
"YFLKWc":-0.275
},
"lower_bound":0.0,
"upper_bound":1000.0,
"gene_reaction_rule":""
},
{
"id":"INF1",
"name":"INF1",
"metabolites":{
"IL1B":-1.0,
"Inflam":1.0
},
"lower_bound":0.0,
"upper_bound":1000.0,
"gene_reaction_rule":""
},
{
"id":"INF2",
"name":"INF2",
"metabolites":{
"Inflam":1.0,
"TNFA":-1.0
},
"lower_bound":0.0,
"upper_bound":1000.0,
"gene_reaction_rule":""
},
{
"id":"L",
"name":"L",
"metabolites":{
"DPH":-1.0,
"DPSI":-1.0,
"PMFm":1.0
},
"lower_bound":0.0,
"upper_bound":1000.0,
"gene_reaction_rule":""
},
{
"id":"LACIO",
"name":"LACIO",
"metabolites":{
"LAC":1.0,
"LACc":-1.0
},
"lower_bound":0.0,
"upper_bound":1000.0,
"gene_reaction_rule":""
},
{
"id":"LDH",
"name":"LDH",
"metabolites":{
"LACc":1.0,
"NADHc":-1.0,
"NADc":1.0,
"PYRc":-1.0
},
"lower_bound":-1000.0,
"upper_bound":1000.0,
"gene_reaction_rule":""
},
{
"id":"MDH1",
"name":"MDH1",
"metabolites":{
"MALc":-1.0,
"NADHc":1.0,
"NADc":-1.0,
"OAAc":1.0
},
"lower_bound":-1000.0,
"upper_bound":1000.0,
"gene_reaction_rule":""
},
{
"id":"MDH2",
"name":"MDH2",
"metabolites":{
"MALm":-1.0,
"NADHm":1.0,
"NADm":-1.0,
"OAAm":1.0
},
"lower_bound":-1000.0,
"upper_bound":1000.0,
"gene_reaction_rule":""
},
{
"id":"ME1",
"name":"ME1",
"metabolites":{
"CO2":1.0,
"MALc":-1.0,
"NADPHc":1.0,
"NADPc":-1.0,
"PYRc":1.0
},
"lower_bound":0.0,
"upper_bound":1000.0,
"gene_reaction_rule":""
},
{
"id":"ME2",
"name":"ME2",
"metabolites":{
"CO2":1.0,
"MALm":-1.0,
"NADHm":1.0,
"NADm":-1.0,
"PYRm":1.0
},
"lower_bound":0.0,
"upper_bound":1000.0,
"gene_reaction_rule":""
},
{
"id":"METOUT",
"name":"METOUT",
"metabolites":{
"MET":1.0,
"METc":-1.0
},
"lower_bound":-1000.0,
"upper_bound":1000.0,
"gene_reaction_rule":""
},
{
"id":"MTFMT",
"name":"MTFMT",
"metabolites":{
"FMETm":1.0,
"FTHFm":-1.0,
"METm":-1.0,
"THFm":1.0
},
"lower_bound":0.0,
"upper_bound":1000.0,
"gene_reaction_rule":""
},
{
"id":"MTHFD1L",
"name":"MTHFD1L",
"metabolites":{
"ADPm":-1.0,
"ATPm":1.0,
"FORm":1.0,
"FTHFm":-1.0,
"Pim":-1.0,
"THFm":1.0
},
"lower_bound":-1000.0,
"upper_bound":1000.0,
"gene_reaction_rule":""
},
{
"id":"MTHFD1_1",
"name":"MTHFD1_1",
"metabolites":{
"FTHFc":1.0,
"MTHFc":-1.0,
"NADPHc":1.0,
"NADPc":-1.0
},
"lower_bound":-1000.0,
"upper_bound":1000.0,
"gene_reaction_rule":""
},
{
"id":"MTHFD1_2",
"name":"MTHFD1_2",
"metabolites":{
"ADPc":-1.0,
"ATPc":1.0,
"FORc":1.0,
"FTHFc":-1.0,
"Pic":-1.0,
"THFc":1.0
},
"lower_bound":-1000.0,
"upper_bound":1000.0,
"gene_reaction_rule":""
},
{
"id":"MTHFD2",
"name":"MTHFD2",
"metabolites":{
"FTHFm":1.0,
"MTHFm":-1.0,
"NADHm":1.0,
"NADm":-1.0
},
"lower_bound":-1000.0,
"upper_bound":1000.0,
"gene_reaction_rule":""
},
{
"id":"MTHFD2L",
"name":"MTHFD2L",
"metabolites":{
"FTHFm":1.0,
"MTHFm":-1.0,
"NADPHm":1.0,
"NADPm":-1.0
},
"lower_bound":-1000.0,
"upper_bound":1000.0,
"gene_reaction_rule":""
},
{
"id":"MTHSYNT",
"name":"MTHSYNT",
"metabolites":{
"METc":1.0,
"MTHFc":-1.0,
"NADPHc":-1.0,
"NADPc":1.0,
"THFc":1.0
},
"lower_bound":0.0,
"upper_bound":1000.0,
"gene_reaction_rule":""
},
{
"id":"NAGS_ACY",
"name":"NAGS_ACY",
"metabolites":{
"ACETm":1.0,
"ACoAm":-1.0,
"ADPm":3.0,
"AKGm":1.0,
"ATPm":-3.0,
"CoAm":1.0,
"GLUTm":-2.0,
"NADHm":-1.0,
"NADm":1.0,
"ORNm":1.0,
"Pim":3.0
},
"lower_bound":0.0,
"upper_bound":1000.0,
"gene_reaction_rule":""
},
{
"id":"NIG",
"name":"NIG",
"metabolites":{
"DPH":4.0,
"DPSI":-1.0
},
"lower_bound":-1000.0,
"upper_bound":1000.0,
"gene_reaction_rule":""
},
{
"id":"NOS",
"name":"NOS",
"metabolites":{
"ARGc":-2.0,
"CITRc":2.0,
"H2O":4.0,
"NADPHc":-3.0,
"NADPc":3.0,
"NO":2.0,
"O2":-4.0
},
"lower_bound":0.0,
"upper_bound":1000.0,
"gene_reaction_rule":""
},
{
"id":"NUC",
"name":"NUC",
"metabolites":{
"ADPc":8.7,
"ASPc":-1.0,
"ATPc":-8.7,
"FTHFc":-1.0,
"GLNc":-2.4,
"GLUTc":2.4,
"GLYc":-0.5,
"MALc":1.0,
"NADHc":0.2,
"NADPHc":-0.75,
"NADPc":0.75,
"NADc":-0.2,
"Pic":8.7,
"Q":-0.5,
"QH2":0.5,
"R5P":-1.0,
"THFc":1.0,
"XTPc":1.0
},
"lower_bound":0.0,
"upper_bound":1000.0,
"gene_reaction_rule":""
},
{
"id":"PDH",
"name":"PDH",
"metabolites":{
"ACoAm":1.0,
"CO2":1.0,
"NADHm":1.0,
"NADm":-1.0,
"PYRm":-1.0
},
"lower_bound":0.0,
"upper_bound":1000.0,
"gene_reaction_rule":""
},
{
"id":"PEPCK1",
"name":"PEPCK1",
"metabolites":{
"ADPc":1.0,
"ATPc":-1.0,
"CO2":1.0,
"OAAc":-1.0,
"PEPc":1.0
},
"lower_bound":0.0,
"upper_bound":1000.0,
"gene_reaction_rule":""
},
{
"id":"PEPCK2",
"name":"PEPCK2",
"metabolites":{
"ADPm":1.0,
"ATPm":-1.0,
"CO2":1.0,
"OAAm":-1.0,
"PEPm":1.0
},
"lower_bound":0.0,
"upper_bound":1000.0,
"gene_reaction_rule":""
},
{
"id":"PK",
"name":"PK",
"metabolites":{
"ADPc":-1.0,
"ATPc":1.0,
"PEPc":-1.0,
"PYRc":1.0
},
"lower_bound":0.0,
"upper_bound":1000.0,
"gene_reaction_rule":""
},
{
"id":"PL1",
"name":"PL1",
"metabolites":{
"ACoAc":-8.0,
"ADPc":7.0,
"ATPc":-7.0,
"CO2":7.0,
"CoAc":8.0,
"HCO3":-7.0,
"NADPHc":-14.0,
"NADPc":14.0,
"Palmitate_c":1.0,
"Pic":7.0
},
"lower_bound":0.0,
"upper_bound":1000.0,
"gene_reaction_rule":""
},
{
"id":"PL2",
"name":"PL2",
"metabolites":{
"ACoAm":8.0,
"CoAm":-7.0,
"NADHm":7.0,
"NADm":-7.0,
"PalCoAm":-1.0,
"Q":-7.0,
"QH2":7.0
},
"lower_bound":0.0,
"upper_bound":1000.0,
"gene_reaction_rule":""
},
{
"id":"PL3",
"name":"PL3",
"metabolites":{
"CoAc":-1.0,
"PalCoAc":1.0,
"Palmitate_c":-1.0
},
"lower_bound":0.0,
"upper_bound":1000.0,
"gene_reaction_rule":""
},
{
"id":"PP1",
"name":"PP1",
"metabolites":{
"CO2":1.0,
"G6P":-1.0,
"NADPHc":2.0,
"NADPc":-2.0,
"R5P":1.0
},
"lower_bound":0.0,
"upper_bound":1000.0,
"gene_reaction_rule":""
},
{
"id":"PP2",
"name":"PP2",
"metabolites":{
"G3P":1.0,
"G6P":2.0,
"R5P":-3.0
},
"lower_bound":-1000.0,
"upper_bound":1000.0,
"gene_reaction_rule":""
},
{
"id":"PROS",
"name":"PROS",
"metabolites":{
"ADPc":1.0,
"ATPc":-1.0,
"GLUTc":-1.0,
"H2O":1.0,
"NADPHc":-2.0,
"NADPc":2.0,
"PROc":1.0,
"Pic":1.0
},
"lower_bound":0.0,
"upper_bound":1000.0,
"gene_reaction_rule":""
},
{
"id":"PYC",
"name":"PYC",
"metabolites":{
"ADPm":1.0,
"ATPm":-1.0,
"HCO3":-1.0,
"OAAm":1.0,
"PYRm":-1.0,
"Pim":1.0
},
"lower_bound":0.0,
"upper_bound":1000.0,
"gene_reaction_rule":""
},
{
"id":"RC1",
"name":"RC1",
"metabolites":{
"DPH":4.0,
"DPSI":4.0,
"NADHm":-1.0,
"NADm":1.0,
"Q":-1.0,
"QH2":1.0
},
"lower_bound":-1000.0,
"upper_bound":1000.0,
"gene_reaction_rule":""
},
{
"id":"RC2",
"name":"RC2",
"metabolites":{
"MALm":1.0,
"Q":-1.0,
"QH2":1.0,
"SUCCm":-1.0
},
"lower_bound":-1000.0,
"upper_bound":1000.0,
"gene_reaction_rule":""
},
{
"id":"RC34",
"name":"RC34",
"metabolites":{
"DPH":6.0,
"DPSI":6.0,
"O2":-0.5,
"Q":1.0,
"QH2":-1.0
},
"lower_bound":0.0,
"upper_bound":1000.0,
"gene_reaction_rule":""
},
{
"id":"SEROUT",
"name":"SEROUT",
"metabolites":{
"SER":-1.0,
"SERc":1.0
},
"lower_bound":-1000.0,
"upper_bound":1000.0,
"gene_reaction_rule":""
},
{
"id":"SERSYNT",
"name":"SERSYNT",
"metabolites":{
"3PG":-1.0,
"AKGc":1.0,
"GLUTc":-1.0,
"NADHc":1.0,
"NADc":-1.0,
"Pic":1.0,
"SERc":1.0
},
"lower_bound":0.0,
"upper_bound":1000.0,
"gene_reaction_rule":""
},
{
"id":"SHMT1",
"name":"SHMT1",
"metabolites":{
"GLYc":1.0,
"MTHFc":1.0,
"SERc":-1.0,
"THFc":-1.0
},
"lower_bound":-1000.0,
"upper_bound":1000.0,
"gene_reaction_rule":""
},
{
"id":"SHMT2",
"name":"SHMT2",
"metabolites":{
"GLYm":1.0,
"MTHFm":1.0,
"SERm":-1.0,
"THFm":-1.0
},
"lower_bound":-1000.0,
"upper_bound":1000.0,
"gene_reaction_rule":""
},
{
"id":"SLP",
"name":"SLP",
"metabolites":{
"ADPm":-1.0,
"AKGm":-1.0,
"ATPm":1.0,
"CO2":1.0,
"NADHm":1.0,
"NADm":-1.0,
"Pim":-1.0,
"SUCCm":1.0
},
"lower_bound":0.0,
"upper_bound":1000.0,
"gene_reaction_rule":""
},
{
"id":"STRO",
"name":"STRO",
"metabolites":{
"GFactor":-1.0,
"Inflam":-1.0,
"Stroma":1.0
},
"lower_bound":0.0,
"upper_bound":1000.0,
"gene_reaction_rule":""
},
{
"id":"T1",
"name":"T1",
"metabolites":{
"CITc":1.0,
"CITm":-1.0,
"DPH":1.0,
"MALc":-1.0,
"MALm":1.0
},
"lower_bound":-1000.0,
"upper_bound":1000.0,
"gene_reaction_rule":""
},
{
"id":"T11",
"name":"T11",
"metabolites":{
"PalCoAc":-1.0,
"PalCoAm":1.0
},
"lower_bound":0.0,
"upper_bound":1000.0,
"gene_reaction_rule":""
},
{
"id":"T12",
"name":"T12",
"metabolites":{
"Pi":-1.0,
"Pic":1.0
},
"lower_bound":-1000.0,
"upper_bound":1000.0,
"gene_reaction_rule":""
},
{
"id":"T13",
"name":"T13",
"metabolites":{
"XTP":1.0,
"XTPc":-1.0
},
"lower_bound":-1000.0,
"upper_bound":1000.0,
"gene_reaction_rule":""
},
{
"id":"T14",
"name":"T14",
"metabolites":{
"ASP":1.0,
"ASPc":-1.0
},
"lower_bound":-1000.0,
"upper_bound":1000.0,
"gene_reaction_rule":""
},
{
"id":"T15",
"name":"T15",
"metabolites":{
"GLUT":1.0,
"GLUTc":-1.0
},
"lower_bound":-1000.0,
"upper_bound":1000.0,
"gene_reaction_rule":""
},
{
"id":"T16",
"name":"T16",
"metabolites":{
"PYR":1.0,
"PYRc":-1.0
},
"lower_bound":-1000.0,
"upper_bound":1000.0,
"gene_reaction_rule":""
},
{
"id":"T17",
"name":"T17",
"metabolites":{
"Palmitate":1.0,
"Palmitate_c":-1.0
},
"lower_bound":0.0,
"upper_bound":1000.0,
"gene_reaction_rule":""
},
{
"id":"T18",
"name":"T18",
"metabolites":{
"ARG":1.0,
"ARGc":-1.0
},
"lower_bound":-1000.0,
"upper_bound":1000.0,
"gene_reaction_rule":""
},
{
"id":"T2",
"name":"T2",
"metabolites":{
"AKGc":-1.0,
"AKGm":1.0,
"MALc":1.0,
"MALm":-1.0
},
"lower_bound":-1000.0,
"upper_bound":1000.0,
"gene_reaction_rule":""
},
{
"id":"T20",
"name":"T20",
"metabolites":{
"NH3":1.0,
"NH3_out":-1.0
},
"lower_bound":-1000.0,
"upper_bound":1000.0,
"gene_reaction_rule":""
},
{
"id":"T21",
"name":"T21",
"metabolites":{
"GLY":1.0,
"GLYc":-1.0
},
"lower_bound":-1000.0,
"upper_bound":1000.0,
"gene_reaction_rule":""
},
{
"id":"T22",
"name":"T22",
"metabolites":{
"GLYc":-1.0,
"GLYm":1.0
},
"lower_bound":-1000.0,
"upper_bound":1000.0,
"gene_reaction_rule":""
},
{
"id":"T23",
"name":"T23",
"metabolites":{
"SERc":-1.0,
"SERm":1.0
},
"lower_bound":-1000.0,
"upper_bound":1000.0,
"gene_reaction_rule":""
},
{
"id":"T25",
"name":"T25",
"metabolites":{
"FORc":-1.0,
"FORm":1.0
},
"lower_bound":-1000.0,
"upper_bound":1000.0,
"gene_reaction_rule":""
},
{
"id":"T26",
"name":"T26",
"metabolites":{
"FOR":-1.0,
"FORc":1.0
},
"lower_bound":-1000.0,
"upper_bound":1000.0,
"gene_reaction_rule":""
},
{
"id":"T3",
"name":"T3",
"metabolites":{
"MALc":1.0,
"MALm":-1.0,
"Pic":-1.0,
"Pim":1.0
},
"lower_bound":-1000.0,
"upper_bound":1000.0,
"gene_reaction_rule":""
},
{
"id":"T4",
"name":"T4",
"metabolites":{
"ASPc":1.0,
"ASPm":-1.0,
"DPH":-1.0,
"DPSI":-1.0,
"GLUTc":-1.0,
"GLUTm":1.0
},
"lower_bound":0.0,
"upper_bound":1000.0,
"gene_reaction_rule":""
},
{
"id":"T5",
"name":"T5",
"metabolites":{
"DPH":-1.0,
"Pic":-1.0,
"Pim":1.0
},
"lower_bound":-1000.0,
"upper_bound":1000.0,
"gene_reaction_rule":""
},
{
"id":"T6",
"name":"T6",
"metabolites":{
"DPH":-1.0,
"PYRc":-1.0,
"PYRm":1.0
},
"lower_bound":0.0,
"upper_bound":1000.0,
"gene_reaction_rule":""
},
{
"id":"T7",
"name":"T7",
"metabolites":{
"CITc":-1.0,
"CITm":1.0,
"DPH":-1.0,
"DPSI":-1.0,
"PEPc":1.0,
"PEPm":-1.0
},
"lower_bound":-1000.0,
"upper_bound":1000.0,
"gene_reaction_rule":""
},
{
"id":"T8",
"name":"T8",
"metabolites":{
"GLNc":-1.0,
"GLNm":1.0
},
"lower_bound":-1000.0,
"upper_bound":1000.0,
"gene_reaction_rule":""
},
{
"id":"T9",
"name":"T9",
"metabolites":{
"DPH":-1.0,
"GLUTc":-1.0,
"GLUTm":1.0
},
"lower_bound":-1000.0,
"upper_bound":1000.0,
"gene_reaction_rule":""
},
{
"id":"TALA",
"name":"TALA",
"metabolites":{
"ALA":1.0,
"ALAc":-1.0
},
"lower_bound":-1000.0,
"upper_bound":1000.0,
"gene_reaction_rule":""
},
{
"id":"TCITR",
"name":"TCITR",
"metabolites":{
"CITRc":1.0,
"CITRm":-1.0,
"DPH":1.0
},
"lower_bound":-1000.0,
"upper_bound":1000.0,
"gene_reaction_rule":""
},
{
"id":"TCYS",
"name":"TCYS",
"metabolites":{
"CYS":-1.0,
"CYSc":1.0
},
"lower_bound":0.0,
"upper_bound":1000.0,
"gene_reaction_rule":""
},
{
"id":"THIS",
"name":"THIS",
"metabolites":{
"HIS":-1.0,
"HISc":1.0
},
"lower_bound":0.0,
"upper_bound":1000.0,
"gene_reaction_rule":""
},
{
"id":"TIVDG",
"name":"TIVDG",
"metabolites":{
"ACoAm":0.7,
"AKGc":-0.7,
"GLUTc":0.7,
"NADHc":1.33,
"NADc":-1.33,
"Q":-0.7,
"QH2":0.7,
"SUCCm":1.0,
"TIVc":-1.0
},
"lower_bound":0.0,
"upper_bound":1000.0,
"gene_reaction_rule":""
},
{
"id":"TIVUP",
"name":"TIVUP",
"metabolites":{
"TIV":-1.0,
"TIVc":1.0
},
"lower_bound":0.0,
"upper_bound":1000.0,
"gene_reaction_rule":""
},
{
"id":"TMET",
"name":"TMET",
"metabolites":{
"METc":-1.0,
"METm":1.0
},
"lower_bound":-1000.0,
"upper_bound":1000.0,
"gene_reaction_rule":""
},
{
"id":"TMTHF",
"name":"TMTHF",
"metabolites":{
"MTHFc":-1.0,
"MTHFm":1.0
},
"lower_bound":-1000.0,
"upper_bound":1000.0,
"gene_reaction_rule":""
},
{
"id":"TNFA",
"name":"TNFA",
"metabolites":{
"ALAc":-0.082,
"ARGc":-0.06,
"ASNc":-0.03,
"ASPc":-0.03,
"CYSc":-0.017,
"GLNc":-0.056,
"GLUTc":-0.069,
"GLYc":-0.073,
"HISc":-0.017,
"METc":-0.009,
"PROc":-0.064,
"SERc":-0.086,
"TIVc":-0.163,
"TNFA":0.00429,
"YFLKWc":-0.245
},
"lower_bound":0.0,
"upper_bound":1000.0,
"gene_reaction_rule":""
},
{
"id":"TPRO",
"name":"TPRO",
"metabolites":{
"PRO":-1.0,
"PROc":1.0
},
"lower_bound":-1000.0,
"upper_bound":1000.0,
"gene_reaction_rule":""
},
{
"id":"TSUCC",
"name":"TSUCC",
"metabolites":{
"SUCCc":-1.0,
"SUCCm":1.0
},
"lower_bound":-1000.0,
"upper_bound":1000.0,
"gene_reaction_rule":""
},
{
"id":"VEGFA",
"name":"VEGFA",
"metabolites":{
"ALAc":-0.034,
"ARGc":-0.082,
"ASNc":-0.03,
"ASPc":-0.034,
"CYSc":-0.078,
"GLNc":-0.056,
"GLUTc":-0.069,
"GLYc":-0.06,
"HISc":-0.047,
"METc":-0.034,
"PROc":-0.065,
"SERc":-0.065,
"TIVc":-0.108,
"VEGFA":0.00431,
"YFLKWc":-0.237
},
"lower_bound":0.0,
"upper_bound":1000.0,
"gene_reaction_rule":""
},
{
"id":"XYAAS",
"name":"XYAAS",
"metabolites":{
"ALAc":-0.1,
"ARGc":-0.1,
"ASPc":-0.1,
"GLNc":-0.1,
"GLUTc":-0.1,
"SERc":-0.1,
"TIVc":-0.1,
"XYAAc":1.4,
"YFLKWc":-0.1
},
"lower_bound":0.0,
"upper_bound":1000.0,
"gene_reaction_rule":""
},
{
"id":"YFLKWDG",
"name":"YFLKWDG",
"metabolites":{
"ACoAm":2.2,
"AKGc":-1.0,
"GLUTc":1.0,
"MALc":0.4,
"NADHc":0.6,
"NADPHc":-0.6,
"NADPc":0.6,
"NADc":-0.6,
"PYRc":0.2,
"Q":-0.4,
"QH2":0.4,
"YFLKWc":-1.0
},
"lower_bound":0.0,
"upper_bound":1000.0,
"gene_reaction_rule":""
},
{
"id":"YFLKWUP",
"name":"YFLKWUP",
"metabolites":{
"YFLKW":-1.0,
"YFLKWc":1.0
},
"lower_bound":0.0,
"upper_bound":1000.0,
"gene_reaction_rule":""
}
],
"genes":[],
"id":"C2M2NF_collagen_xml",
"name":"C2M2NF_collagen.xml",
"compartments":{
"ext":"",
"int":""
},
"version":"1"
}