Cell line,glucose,lactate,glutamine,glutamate,serine,glycine,alanine,TIV Thr+Ile+Val,YFLKW,arginine,Asn+asp,XTP,proline,cysteine,methionine,type
HCT-116,-314.1154,403.5922,-71.6432,4.1793,-12.9646,-1.9551,4.9139,-18.3313,-27.2028,-6.9689,-6.3059,-0.0053,0.7585,0.0598,-3.2182,Colon
NCI-H460,-168.1057,204.2762,-42.8627,5.0729,-6.0188,-1.9275,8.0457,-9.3881,-13.7649,-2.3194,-3.0933,0.1955,0.8976,0.0859,-1.5531,Leukemia
HT29,-362.4828,566.257,-92.2061,10.894,-13.2537,-0.3263,22.8621,-16.482,-23.0443,-11.0658,-3.1106,0.0314,0.2463,0.0038,-2.4812,Colon
K562,-556.1654,653.717,-83.5081,8.4521,-22.5974,2.4464,-2.6985,-22.8908,-31.8389,-15.0189,-1.0984,-0.007,0.6624,0.0119,-3.6482,Lung
SW620,-153.3711,188.3989,-44.5513,3.5626,-6.1999,-1.2482,9.8926,-9.9135,-14.0146,-4.44,-1.6627,0.0543,0.5984,0.0263,-1.5111,Lung
LOX IMVI,-458.2478,540.3267,-90.6322,14.2366,-17.7439,-5.4521,0.7905,-21.2754,-30.0216,-8.1889,-4.9671,0.08,0.4132,0.2204,-4.1401,Prostate
HCT-15,-188.2894,211.6562,-44.6466,-1.1487,-5.024,0.621,17.017,-11.5887,-15.5117,-3.9435,-4.2066,0.0814,1.6759,0.1336,-1.6846,Ovarian
786-O,-331.381,468.0757,-91.7987,16.925,-13.3735,1.5679,22.1607,-12.8125,-19.4333,-4.5659,-2.6262,-0.0279,2.1584,0.0043,-1.9213,Colon
A549/ATCC,-123.9878,145.7879,-37.2921,9.9572,-4.9386,-2.0433,2.7495,-12.3157,-15.5182,-3.059,-2.826,0.0014,-0.591,0.0408,-1.8263,Breast
KM12,-121.8932,170.5595,-36.0309,6.1644,-4.4397,0.5006,9.3311,-5.6764,-8.4017,-3.4316,-1.2328,0.0988,0.2955,0.0528,-0.8525,Melanoma
U251,-258.4174,294.191,-54.487,7.0778,-8.3927,-3.1286,13.0266,-13.1958,-17.9105,-5.0049,-4.5209,0.0379,2.4599,0.0682,-1.8613,Ovarian
COLO 205,-84.6777,120.3043,-42.2523,2.4301,-4.9594,1.3399,12.7469,-10.5912,-14.0155,-3.1158,-2.0748,0.0107,0.3426,0.0063,-1.3809,Melanoma
SK-MEL-5,-631.8262,704.9636,-147.5821,18.5753,-22.4302,-1.954,17.1969,-31.3808,-46.0361,-7.9296,-10.9995,0.1791,2.4064,0.28,-6.9558,Melanoma
MCF7,-77.4587,52.1718,-22.706,-1.7637,-4.6532,-1.7602,2.0903,-11.4967,-15.0008,-3.3854,-3.8584,0.0019,-0.2624,0.0259,-1.89,Leukemia
MDA-MB-435,-260.9807,301.1316,-67.0085,10.8216,-7.963,-0.2899,5.0994,-14.7623,-20.8832,-1.9852,-3.4444,0.008,3.0635,0.018,-2.3528,CNS
OVCAR-8,-93.7831,131.3681,-24.5712,5.369,-3.2449,-0.6988,0.8772,-5.3347,-8.0533,-0.0984,-1.5057,-0.0064,0.5629,0.0128,-0.8888,Breast
M14,-333.1353,677.1336,-91.9777,21.7,-10.4025,-0.2261,2.8914,-16.7724,-17.0814,-3.8318,0.6428,-0.0514,0.1618,0.0036,-1.4435,Colon
CCRF-CEM,-232.5217,380.1965,-37.1186,2.6354,-7.415,0.9663,-1.789,-8.3782,-9.9039,-4.1191,-0.3835,-0.0043,-0.0658,0.0013,-1.0066,Renal
PC-3,-283.7839,363.4732,-96.3162,6.9317,-13.8722,-1.5188,23.1344,-25.6693,-34.9212,-8.4945,-7.8567,0.1237,-0.2829,0.3282,-3.745,Lung
ACHN,-395.7979,405.6621,-97.6097,-3.034,-14.0518,1.402,23.0414,-26.4068,-34.2452,-7.6154,-15.859,-0.0042,3.7858,0.0056,-3.366,Ovarian
MOLT-4,-115.2274,133.078,-33.4657,1.9064,-5.276,0.8868,9.2302,-5.5338,-7.988,-2.7099,-1.3052,-0.0014,0.3036,0.0054,-0.866,Lung
HL-60(TB),-241.803,336.7529,-43.8808,2.9502,-10.7379,1.2898,6.8094,-10.169,-15.3403,-6.8653,-2.2916,-0.01,-0.1241,0.0027,-2.0955,Ovarian
SR,-268.912,309.0111,-34.1622,5.8528,-9.3725,0.7983,2.3772,-8.6222,-9.6149,-3.0672,-0.9726,0.2921,0.0719,0.0076,-1.0155,Renal
SF-295,-859.7043,1337.7296,-304.2716,96.3831,-33.7741,0.0161,45.9128,-48.0768,-65.1161,-0.549,-1.5663,1.5332,-0.4896,0.2908,-7.0076,Breast
SN12C,-381.9035,571.6517,-69.4308,9.0375,-8.7879,-2.7429,19.5727,-12.4769,-13.1141,-1.1102,-0.5283,-0.0285,-0.4628,0.0334,-1.4949,Renal
IGROV1,-586.5372,703.0412,-80.54,1.5764,-18.9793,1.4221,17.9449,-21.549,-28.8201,-3.207,-15.1188,0.3015,4.665,0.0261,-2.5818,Lung
UACC-62,-590.3631,654.147,-108.92,16.1503,-18.7669,1.8183,21.4635,-19.0029,-25.8359,-5.617,-2.0789,0.1324,1.9264,0.1355,-3.0386,Renal
HCC-2998,-287.2239,351.9453,-75.0611,10.78,-8.8311,0.7036,13.4611,-20.2028,-28.2267,-4.2948,-3.561,0.2066,1.7724,0.0575,-2.6911,CNS
DU-145,-267.3919,360.8113,-72.8192,9.4102,-6.5307,-1.5395,12.6614,-10.0021,-14.2857,-3.566,-1.2031,0.0069,0.8972,0.0128,-1.5267,Melanoma
SF-268,-198.5447,265.25,-48.678,9.3741,-6.5003,-1.1317,9.7658,-9.2886,-13.2745,-4.8637,-2.8234,0.0078,1.1048,0.1866,-1.858,Melanoma
NCI-H23,-198.4241,247.6752,-31.958,3.7597,-7.5408,-0.8465,0.702,-8.2996,-12.4214,-1.2034,-3.3541,0.0206,0.3075,0.0094,-1.4868,CNS
RPMI 8226,-608.7514,704.5734,-126.619,16.3795,-22.7668,-0.4097,33.1451,-25.5477,-32.4481,-13.1278,-2.9469,0.1983,2.495,0.0153,-2.3755,Renal
NCI/ADR-RES,-205.5394,289.0397,-37.3106,7.8242,-8.8378,1.9233,3.5191,-8.3354,-12.0414,-2.3799,-2.225,-0.0242,-0.2337,0.02,-1.4787,CNS
SNB-19,-411.5125,951.0788,-181.9868,41.7974,-18.2427,1.6595,30.8338,-19.2187,-28.627,-15.829,-7.6902,-0.1069,1.2594,0.0034,-2.0685,Melanoma
OVCAR-3,-193.7905,256.144,-46.4185,1.9574,-7.1975,0.8701,16.5815,-9.9745,-14.1379,-4.9159,-1.9606,0.0085,0.5899,0.0065,-1.2949,Melanoma
SK-MEL-28,-711.6362,894.1663,-140.4002,24.937,-24.6522,6.6687,29.2481,-31.9913,-40.1739,-9.8742,-7.6897,0.0369,3.561,0.0142,-4.2278,Lung
NCI-H322M,-263.3722,340.7389,-73.2276,22.0967,-8.738,-1.7015,3.5907,-12.5189,-16.2104,-3.039,-3.2142,0.0607,0.3731,0.0308,-1.7799,Colon
SF-539,-352.3513,456.2223,-94.3644,14.0615,-7.2031,1.4663,25.4929,-15.688,-20.4214,-4.2445,-1.9745,0.1829,1.3554,0.0222,-1.6777,Melanoma
NCI-H522,-578.6023,692.0098,-138.9429,13.2068,-15.8918,9.8928,29.728,-12.0621,-17.2092,-7.5676,-1.377,0.2547,5.5225,0.0147,-2.3573,Ovarian
UACC-257,-100.3977,112.6564,-26.6921,2.6957,-2.0853,-0.027,1.7531,-8.1151,-10.63,-2.1955,-2.6933,0.0348,-0.3274,0.0013,-1.0655,Breast
HOP-62,-302.673,469.9977,-101.2166,39.1633,-11.2907,-0.2121,9.7775,-12.5513,-17.1184,-4.7287,-1.9388,-0.0234,-0.4675,0.0072,-1.7276,Colon
CAKI-1,-364.2799,444.0954,-98.5059,-2.0806,-12.7744,-0.4358,32.1686,-17.3978,-24.9106,0.9094,-9.93,0.3883,3.5146,0.0076,-2.5985,CNS
OVCAR-4,-169.3577,208.2963,-39.9503,-3.7772,-7.8941,2.1845,21.2815,-11.5057,-14.4116,-1.5277,-2.807,0.0409,1.1086,0.0067,-1.0579,Renal
UO-31,-289.5621,360.1671,-70.7024,3.6691,-10.1948,2.6321,27.949,-7.9231,-12.029,-1.7495,-4.4081,0.0055,2.2886,0.0018,-1.4016,Leukemia
MDA-MB-231/ATCC,-154.4084,214.0887,-36.6997,6.4472,-8.3273,0.2343,4.9171,-8.8587,-10.7697,-1.3109,0.2669,0.0235,0.8536,0.0059,-1.1223,Renal
EKVX,-111.3113,165.1001,-37.0487,7.4484,-5.5678,-2.1506,2.1346,-9.2681,-12.8901,-2.0901,-2.5531,0.0087,-1.1654,0.0105,-1.6345,CNS
T-47D,-258.0033,305.0792,-36.3719,2.056,-4.9611,-1.5133,11.2916,-8.9957,-11.9121,-4.7353,-2.6599,0.1034,1.9267,0.0015,-1.0776,Leukemia
SK-MEL-2,-600.1465,979.6317,-227.1171,36.8019,-33.2227,6.5416,42.116,-26.6478,-32.2495,-25.2588,-2.9528,-0.0276,2.1166,0.0084,-2.9709,Ovarian
MALME-3M,-345.0359,379.0048,-49.6893,6.5516,-10.0313,6.5307,9.2658,-12.0205,-12.3351,-0.5285,-1.388,-0.0108,-0.4349,0.0025,-1.3677,Leukemia
SK-OV-3,-129.2422,303.2586,-121.2032,40.3383,-11.7714,4.8176,19.2918,-9.1995,-15.3704,-3.6739,1.34,0.0225,0.3107,0.0158,-1.4531,Melanoma
OVCAR-5,-162.0978,266.0653,-33.136,12.4562,-6.7625,1.5675,3.1138,-5.9374,-8.3002,1.388,-1.8216,-0.0155,0.5589,0.0036,-1.223,Breast
TK-10,-182.7086,246.804,-60.1726,6.3413,-6.6717,2.4901,20.0994,-7.8489,-10.9855,-3.2507,-1.0204,-0.0042,1.1085,0.0001,-1.0639,Leukemia
HS 578T,-663.572,927.7075,-150.145,46.5589,-14.0635,5.2389,31.0811,-25.0827,-24.327,-7.3759,0.5736,-0.0217,1.4341,0.0699,-2.2044,Lung
BT-549,-390.1506,478.2735,-65.4656,3.4366,-10.615,2.5824,21.3958,-14.7777,-20.3676,-3.383,-5.3865,0.2343,3.0543,0.1032,-2.2317,Colon
NCI-H226,-244.4386,290.6545,-84.1512,14.8297,-16.3231,2.6909,8.7878,-12.7403,-15.5006,-1.4407,-7.68,0.3094,1.2458,0.0394,-1.7989,Renal
MDA-MB-468,-54.052,38.9011,-14.4872,-2.1148,-2.4066,-0.1225,4.5888,-5.5497,-7.6136,-2.1609,-2.7991,0.0422,-0.3159,0.0049,-0.7132,Ovarian
SNB-75,-343.4978,445.275,-117.089,24.9096,-7.7331,-2.0036,29.3849,-14.8869,-16.5856,-2.2875,2.2956,0.3269,1.0473,0.1416,-1.5513,Prostate
RXF 393,-729.7537,1115.1356,-222.0583,48.6667,-17.1442,4.2286,64.9706,-21.1575,-26.4771,-5.5581,-2.9893,0.331,4.0111,0.0095,-3.0202,Breast
A498,-522.6374,792.08,-176.2831,45.0096,-16.3899,4.9546,33.1652,-16.6891,-22.6824,-5.1811,-1.8274,0.2853,4.6005,0.0199,-2.2364,Lung
HOP-92,-742.938,1151.6314,-121.5299,14.2156,-25.6728,9.8949,29.2109,-23.846,-28.4328,-11.062,-4.8356,-0.0815,2.2265,0.0035,-2.2104,Lung
Moyennes,-326.8713,442.2036,-82.4829,13.535,-11.5745,0.9581,15.8861,-14.9037,-19.8001,-4.8969,-3.3348,0.0974,1.2146,0.0458,-2.1063,
STD,196.115,289.4048,56.2007,16.9908,7.053,2.9657,13.3426,7.9936,10.5675,4.4431,3.3857,0.2223,1.4857,0.0751,1.2315,
UPBOUND,-522.99,152.8,-138.68,-3.46,-18.63,-2.01,2.54,-22.9,-30.37,-9.34,-6.72,-0.11,-0.27,0,-3.3379,
LOBOUND,-130.76,731.61,-26.28,30.53,-4.52,3.92,29.23,-6.91,-9.23,-0.45,0.05,0.32,2.7,0.12,-0.8748,
Moyennes Colon,-328.1872,486.2955,-83.9336,16.9136,-11.5197,-0.0387,12.5132,-14.8923,-20.0655,-5.369,-3.1342,0.0312,0.8978,0.0304,-2.1148,
Moyennes Leukemia,-220.1457,257.9172,-47.0842,3.6545,-7.0885,1.0753,13.1236,-9.6122,-12.6712,-2.6615,-2.738,0.0486,0.9207,0.0196,-1.3923,
Moyennes Lung,-481.7632,645.2548,-102.9711,17.0167,-16.4115,3.1939,20.0232,-20.3517,-25.911,-7.4848,-4.5357,0.0767,1.9743,0.0562,-2.5812,
Moyennes Prostate,-400.8728,492.8009,-103.8606,19.5731,-12.7385,-3.7279,15.0877,-18.0812,-23.3036,-5.2382,-1.3358,0.2035,0.7303,0.181,-2.8457,
Moyennes Ovarian,-331.0155,422.6864,-88.7388,7.677,-12.8182,2.3566,19.4753,-15.0886,-20.0114,-8.3452,-4.8581,0.0535,2.1601,0.034,-2.1498,
Moyennes Breast,-344.9541,518.1238,-108.0036,29.2547,-11.3249,0.5072,19.8962,-16.8229,-22.3492,-1.6787,-2.2337,0.3131,0.6208,0.0598,-2.5052,
Moyennes Melanoma,-265.6922,398.7325,-87.9262,16.0121,-9.9194,0.6699,17.1002,-13.4466,-19.3967,-5.73,-3.1799,0.0456,0.9513,0.0652,-2.1187,
Moyennes CNS,-237.9599,299.8312,-57.8155,6.4256,-8.5858,-0.1827,9.5141,-13.0443,-18.5622,-1.8407,-4.1779,0.1013,1.2098,0.0205,-2.0404,
Moyennes Renal,-331.3321,416.5774,-67.1315,8.4444,-12.4567,0.6925,13.7195,-13.3916,-16.4499,-3.9151,-2.1413,0.1205,0.8966,0.0306,-1.6138,
